{
  "contractName": "ReentrancyGuard",
  "abi": [],
  "metadata": "{\"compiler\":{\"version\":\"0.8.6+commit.11564f7e\"},\"language\":\"Solidity\",\"output\":{\"abi\":[],\"devdoc\":{\"details\":\"Contract module that helps prevent reentrant calls to a function. Inheriting from `ReentrancyGuard` will make the {nonReentrant} modifier available, which can be applied to functions to make sure there are no nested (reentrant) calls to them. Note that because there is a single `nonReentrant` guard, functions marked as `nonReentrant` may not call one another. This can be worked around by making those functions `private`, and then adding `external` `nonReentrant` entry points to them. TIP: If you would like to learn more about reentrancy and alternative ways to protect against it, check out our blog post https://blog.openzeppelin.com/reentrancy-after-istanbul/[Reentrancy After Istanbul].\",\"kind\":\"dev\",\"methods\":{},\"version\":1},\"userdoc\":{\"kind\":\"user\",\"methods\":{},\"version\":1}},\"settings\":{\"compilationTarget\":{\"@openzeppelin/contracts/security/ReentrancyGuard.sol\":\"ReentrancyGuard\"},\"evmVersion\":\"berlin\",\"libraries\":{},\"metadata\":{\"bytecodeHash\":\"ipfs\"},\"optimizer\":{\"enabled\":false,\"runs\":200},\"remappings\":[]},\"sources\":{\"@openzeppelin/contracts/security/ReentrancyGuard.sol\":{\"keccak256\":\"0x842ccf9a6cd33e17b7acef8372ca42090755217b358fe0c44c98e951ea549d3a\",\"license\":\"MIT\",\"urls\":[\"bzz-raw://6cc5f36034a77d105263ae6d8cc18b16260b4a0f6cdb1a26f21ba3670fdd06dd\",\"dweb:/ipfs/QmdJrJ2LoG546BkfyZPta96BNmaVBfqZoh8kq7PqHuQyPk\"]}},\"version\":1}",
  "bytecode": "0x",
  "deployedBytecode": "0x",
  "immutableReferences": {},
  "generatedSources": [],
  "deployedGeneratedSources": [],
  "sourceMap": "",
  "deployedSourceMap": "",
  "source": "// SPDX-License-Identifier: MIT\n\npragma solidity ^0.8.0;\n\n/**\n * @dev Contract module that helps prevent reentrant calls to a function.\n *\n * Inheriting from `ReentrancyGuard` will make the {nonReentrant} modifier\n * available, which can be applied to functions to make sure there are no nested\n * (reentrant) calls to them.\n *\n * Note that because there is a single `nonReentrant` guard, functions marked as\n * `nonReentrant` may not call one another. This can be worked around by making\n * those functions `private`, and then adding `external` `nonReentrant` entry\n * points to them.\n *\n * TIP: If you would like to learn more about reentrancy and alternative ways\n * to protect against it, check out our blog post\n * https://blog.openzeppelin.com/reentrancy-after-istanbul/[Reentrancy After Istanbul].\n */\nabstract contract ReentrancyGuard {\n    // Booleans are more expensive than uint256 or any type that takes up a full\n    // word because each write operation emits an extra SLOAD to first read the\n    // slot's contents, replace the bits taken up by the boolean, and then write\n    // back. This is the compiler's defense against contract upgrades and\n    // pointer aliasing, and it cannot be disabled.\n\n    // The values being non-zero value makes deployment a bit more expensive,\n    // but in exchange the refund on every call to nonReentrant will be lower in\n    // amount. Since refunds are capped to a percentage of the total\n    // transaction's gas, it is best to keep them low in cases like this one, to\n    // increase the likelihood of the full refund coming into effect.\n    uint256 private constant _NOT_ENTERED = 1;\n    uint256 private constant _ENTERED = 2;\n\n    uint256 private _status;\n\n    constructor() {\n        _status = _NOT_ENTERED;\n    }\n\n    /**\n     * @dev Prevents a contract from calling itself, directly or indirectly.\n     * Calling a `nonReentrant` function from another `nonReentrant`\n     * function is not supported. It is possible to prevent this from happening\n     * by making the `nonReentrant` function external, and make it call a\n     * `private` function that does the actual work.\n     */\n    modifier nonReentrant() {\n        // On the first call to nonReentrant, _notEntered will be true\n        require(_status != _ENTERED, \"ReentrancyGuard: reentrant call\");\n\n        // Any calls to nonReentrant after this point will fail\n        _status = _ENTERED;\n\n        _;\n\n        // By storing the original value once again, a refund is triggered (see\n        // https://eips.ethereum.org/EIPS/eip-2200)\n        _status = _NOT_ENTERED;\n    }\n}\n",
  "sourcePath": "@openzeppelin/contracts/security/ReentrancyGuard.sol",
  "ast": {
    "absolutePath": "@openzeppelin/contracts/security/ReentrancyGuard.sol",
    "exportedSymbols": {
      "ReentrancyGuard": [
        1028
      ]
    },
    "id": 1029,
    "license": "MIT",
    "nodeType": "SourceUnit",
    "nodes": [
      {
        "id": 990,
        "literals": [
          "solidity",
          "^",
          "0.8",
          ".0"
        ],
        "nodeType": "PragmaDirective",
        "src": "33:23:10"
      },
      {
        "abstract": true,
        "baseContracts": [],
        "contractDependencies": [],
        "contractKind": "contract",
        "documentation": {
          "id": 991,
          "nodeType": "StructuredDocumentation",
          "src": "58:750:10",
          "text": " @dev Contract module that helps prevent reentrant calls to a function.\n Inheriting from `ReentrancyGuard` will make the {nonReentrant} modifier\n available, which can be applied to functions to make sure there are no nested\n (reentrant) calls to them.\n Note that because there is a single `nonReentrant` guard, functions marked as\n `nonReentrant` may not call one another. This can be worked around by making\n those functions `private`, and then adding `external` `nonReentrant` entry\n points to them.\n TIP: If you would like to learn more about reentrancy and alternative ways\n to protect against it, check out our blog post\n https://blog.openzeppelin.com/reentrancy-after-istanbul/[Reentrancy After Istanbul]."
        },
        "fullyImplemented": true,
        "id": 1028,
        "linearizedBaseContracts": [
          1028
        ],
        "name": "ReentrancyGuard",
        "nameLocation": "827:15:10",
        "nodeType": "ContractDefinition",
        "nodes": [
          {
            "constant": true,
            "id": 994,
            "mutability": "constant",
            "name": "_NOT_ENTERED",
            "nameLocation": "1622:12:10",
            "nodeType": "VariableDeclaration",
            "scope": 1028,
            "src": "1597:41:10",
            "stateVariable": true,
            "storageLocation": "default",
            "typeDescriptions": {
              "typeIdentifier": "t_uint256",
              "typeString": "uint256"
            },
            "typeName": {
              "id": 992,
              "name": "uint256",
              "nodeType": "ElementaryTypeName",
              "src": "1597:7:10",
              "typeDescriptions": {
                "typeIdentifier": "t_uint256",
                "typeString": "uint256"
              }
            },
            "value": {
              "hexValue": "31",
              "id": 993,
              "isConstant": false,
              "isLValue": false,
              "isPure": true,
              "kind": "number",
              "lValueRequested": false,
              "nodeType": "Literal",
              "src": "1637:1:10",
              "typeDescriptions": {
                "typeIdentifier": "t_rational_1_by_1",
                "typeString": "int_const 1"
              },
              "value": "1"
            },
            "visibility": "private"
          },
          {
            "constant": true,
            "id": 997,
            "mutability": "constant",
            "name": "_ENTERED",
            "nameLocation": "1669:8:10",
            "nodeType": "VariableDeclaration",
            "scope": 1028,
            "src": "1644:37:10",
            "stateVariable": true,
            "storageLocation": "default",
            "typeDescriptions": {
              "typeIdentifier": "t_uint256",
              "typeString": "uint256"
            },
            "typeName": {
              "id": 995,
              "name": "uint256",
              "nodeType": "ElementaryTypeName",
              "src": "1644:7:10",
              "typeDescriptions": {
                "typeIdentifier": "t_uint256",
                "typeString": "uint256"
              }
            },
            "value": {
              "hexValue": "32",
              "id": 996,
              "isConstant": false,
              "isLValue": false,
              "isPure": true,
              "kind": "number",
              "lValueRequested": false,
              "nodeType": "Literal",
              "src": "1680:1:10",
              "typeDescriptions": {
                "typeIdentifier": "t_rational_2_by_1",
                "typeString": "int_const 2"
              },
              "value": "2"
            },
            "visibility": "private"
          },
          {
            "constant": false,
            "id": 999,
            "mutability": "mutable",
            "name": "_status",
            "nameLocation": "1704:7:10",
            "nodeType": "VariableDeclaration",
            "scope": 1028,
            "src": "1688:23:10",
            "stateVariable": true,
            "storageLocation": "default",
            "typeDescriptions": {
              "typeIdentifier": "t_uint256",
              "typeString": "uint256"
            },
            "typeName": {
              "id": 998,
              "name": "uint256",
              "nodeType": "ElementaryTypeName",
              "src": "1688:7:10",
              "typeDescriptions": {
                "typeIdentifier": "t_uint256",
                "typeString": "uint256"
              }
            },
            "visibility": "private"
          },
          {
            "body": {
              "id": 1006,
              "nodeType": "Block",
              "src": "1732:39:10",
              "statements": [
                {
                  "expression": {
                    "id": 1004,
                    "isConstant": false,
                    "isLValue": false,
                    "isPure": false,
                    "lValueRequested": false,
                    "leftHandSide": {
                      "id": 1002,
                      "name": "_status",
                      "nodeType": "Identifier",
                      "overloadedDeclarations": [],
                      "referencedDeclaration": 999,
                      "src": "1742:7:10",
                      "typeDescriptions": {
                        "typeIdentifier": "t_uint256",
                        "typeString": "uint256"
                      }
                    },
                    "nodeType": "Assignment",
                    "operator": "=",
                    "rightHandSide": {
                      "id": 1003,
                      "name": "_NOT_ENTERED",
                      "nodeType": "Identifier",
                      "overloadedDeclarations": [],
                      "referencedDeclaration": 994,
                      "src": "1752:12:10",
                      "typeDescriptions": {
                        "typeIdentifier": "t_uint256",
                        "typeString": "uint256"
                      }
                    },
                    "src": "1742:22:10",
                    "typeDescriptions": {
                      "typeIdentifier": "t_uint256",
                      "typeString": "uint256"
                    }
                  },
                  "id": 1005,
                  "nodeType": "ExpressionStatement",
                  "src": "1742:22:10"
                }
              ]
            },
            "id": 1007,
            "implemented": true,
            "kind": "constructor",
            "modifiers": [],
            "name": "",
            "nameLocation": "-1:-1:-1",
            "nodeType": "FunctionDefinition",
            "parameters": {
              "id": 1000,
              "nodeType": "ParameterList",
              "parameters": [],
              "src": "1729:2:10"
            },
            "returnParameters": {
              "id": 1001,
              "nodeType": "ParameterList",
              "parameters": [],
              "src": "1732:0:10"
            },
            "scope": 1028,
            "src": "1718:53:10",
            "stateMutability": "nonpayable",
            "virtual": false,
            "visibility": "internal"
          },
          {
            "body": {
              "id": 1026,
              "nodeType": "Block",
              "src": "2170:421:10",
              "statements": [
                {
                  "expression": {
                    "arguments": [
                      {
                        "commonType": {
                          "typeIdentifier": "t_uint256",
                          "typeString": "uint256"
                        },
                        "id": 1013,
                        "isConstant": false,
                        "isLValue": false,
                        "isPure": false,
                        "lValueRequested": false,
                        "leftExpression": {
                          "id": 1011,
                          "name": "_status",
                          "nodeType": "Identifier",
                          "overloadedDeclarations": [],
                          "referencedDeclaration": 999,
                          "src": "2259:7:10",
                          "typeDescriptions": {
                            "typeIdentifier": "t_uint256",
                            "typeString": "uint256"
                          }
                        },
                        "nodeType": "BinaryOperation",
                        "operator": "!=",
                        "rightExpression": {
                          "id": 1012,
                          "name": "_ENTERED",
                          "nodeType": "Identifier",
                          "overloadedDeclarations": [],
                          "referencedDeclaration": 997,
                          "src": "2270:8:10",
                          "typeDescriptions": {
                            "typeIdentifier": "t_uint256",
                            "typeString": "uint256"
                          }
                        },
                        "src": "2259:19:10",
                        "typeDescriptions": {
                          "typeIdentifier": "t_bool",
                          "typeString": "bool"
                        }
                      },
                      {
                        "hexValue": "5265656e7472616e637947756172643a207265656e7472616e742063616c6c",
                        "id": 1014,
                        "isConstant": false,
                        "isLValue": false,
                        "isPure": true,
                        "kind": "string",
                        "lValueRequested": false,
                        "nodeType": "Literal",
                        "src": "2280:33:10",
                        "typeDescriptions": {
                          "typeIdentifier": "t_stringliteral_ebf73bba305590e4764d5cb53b69bffd6d4d092d1a67551cb346f8cfcdab8619",
                          "typeString": "literal_string \"ReentrancyGuard: reentrant call\""
                        },
                        "value": "ReentrancyGuard: reentrant call"
                      }
                    ],
                    "expression": {
                      "argumentTypes": [
                        {
                          "typeIdentifier": "t_bool",
                          "typeString": "bool"
                        },
                        {
                          "typeIdentifier": "t_stringliteral_ebf73bba305590e4764d5cb53b69bffd6d4d092d1a67551cb346f8cfcdab8619",
                          "typeString": "literal_string \"ReentrancyGuard: reentrant call\""
                        }
                      ],
                      "id": 1010,
                      "name": "require",
                      "nodeType": "Identifier",
                      "overloadedDeclarations": [
                        4294967278,
                        4294967278
                      ],
                      "referencedDeclaration": 4294967278,
                      "src": "2251:7:10",
                      "typeDescriptions": {
                        "typeIdentifier": "t_function_require_pure$_t_bool_$_t_string_memory_ptr_$returns$__$",
                        "typeString": "function (bool,string memory) pure"
                      }
                    },
                    "id": 1015,
                    "isConstant": false,
                    "isLValue": false,
                    "isPure": false,
                    "kind": "functionCall",
                    "lValueRequested": false,
                    "names": [],
                    "nodeType": "FunctionCall",
                    "src": "2251:63:10",
                    "tryCall": false,
                    "typeDescriptions": {
                      "typeIdentifier": "t_tuple$__$",
                      "typeString": "tuple()"
                    }
                  },
                  "id": 1016,
                  "nodeType": "ExpressionStatement",
                  "src": "2251:63:10"
                },
                {
                  "expression": {
                    "id": 1019,
                    "isConstant": false,
                    "isLValue": false,
                    "isPure": false,
                    "lValueRequested": false,
                    "leftHandSide": {
                      "id": 1017,
                      "name": "_status",
                      "nodeType": "Identifier",
                      "overloadedDeclarations": [],
                      "referencedDeclaration": 999,
                      "src": "2389:7:10",
                      "typeDescriptions": {
                        "typeIdentifier": "t_uint256",
                        "typeString": "uint256"
                      }
                    },
                    "nodeType": "Assignment",
                    "operator": "=",
                    "rightHandSide": {
                      "id": 1018,
                      "name": "_ENTERED",
                      "nodeType": "Identifier",
                      "overloadedDeclarations": [],
                      "referencedDeclaration": 997,
                      "src": "2399:8:10",
                      "typeDescriptions": {
                        "typeIdentifier": "t_uint256",
                        "typeString": "uint256"
                      }
                    },
                    "src": "2389:18:10",
                    "typeDescriptions": {
                      "typeIdentifier": "t_uint256",
                      "typeString": "uint256"
                    }
                  },
                  "id": 1020,
                  "nodeType": "ExpressionStatement",
                  "src": "2389:18:10"
                },
                {
                  "id": 1021,
                  "nodeType": "PlaceholderStatement",
                  "src": "2418:1:10"
                },
                {
                  "expression": {
                    "id": 1024,
                    "isConstant": false,
                    "isLValue": false,
                    "isPure": false,
                    "lValueRequested": false,
                    "leftHandSide": {
                      "id": 1022,
                      "name": "_status",
                      "nodeType": "Identifier",
                      "overloadedDeclarations": [],
                      "referencedDeclaration": 999,
                      "src": "2562:7:10",
                      "typeDescriptions": {
                        "typeIdentifier": "t_uint256",
                        "typeString": "uint256"
                      }
                    },
                    "nodeType": "Assignment",
                    "operator": "=",
                    "rightHandSide": {
                      "id": 1023,
                      "name": "_NOT_ENTERED",
                      "nodeType": "Identifier",
                      "overloadedDeclarations": [],
                      "referencedDeclaration": 994,
                      "src": "2572:12:10",
                      "typeDescriptions": {
                        "typeIdentifier": "t_uint256",
                        "typeString": "uint256"
                      }
                    },
                    "src": "2562:22:10",
                    "typeDescriptions": {
                      "typeIdentifier": "t_uint256",
                      "typeString": "uint256"
                    }
                  },
                  "id": 1025,
                  "nodeType": "ExpressionStatement",
                  "src": "2562:22:10"
                }
              ]
            },
            "documentation": {
              "id": 1008,
              "nodeType": "StructuredDocumentation",
              "src": "1777:364:10",
              "text": " @dev Prevents a contract from calling itself, directly or indirectly.\n Calling a `nonReentrant` function from another `nonReentrant`\n function is not supported. It is possible to prevent this from happening\n by making the `nonReentrant` function external, and make it call a\n `private` function that does the actual work."
            },
            "id": 1027,
            "name": "nonReentrant",
            "nameLocation": "2155:12:10",
            "nodeType": "ModifierDefinition",
            "parameters": {
              "id": 1009,
              "nodeType": "ParameterList",
              "parameters": [],
              "src": "2167:2:10"
            },
            "src": "2146:445:10",
            "virtual": false,
            "visibility": "internal"
          }
        ],
        "scope": 1029,
        "src": "809:1784:10",
        "usedErrors": []
      }
    ],
    "src": "33:2561:10"
  },
  "legacyAST": {
    "absolutePath": "@openzeppelin/contracts/security/ReentrancyGuard.sol",
    "exportedSymbols": {
      "ReentrancyGuard": [
        1028
      ]
    },
    "id": 1029,
    "license": "MIT",
    "nodeType": "SourceUnit",
    "nodes": [
      {
        "id": 990,
        "literals": [
          "solidity",
          "^",
          "0.8",
          ".0"
        ],
        "nodeType": "PragmaDirective",
        "src": "33:23:10"
      },
      {
        "abstract": true,
        "baseContracts": [],
        "contractDependencies": [],
        "contractKind": "contract",
        "documentation": {
          "id": 991,
          "nodeType": "StructuredDocumentation",
          "src": "58:750:10",
          "text": " @dev Contract module that helps prevent reentrant calls to a function.\n Inheriting from `ReentrancyGuard` will make the {nonReentrant} modifier\n available, which can be applied to functions to make sure there are no nested\n (reentrant) calls to them.\n Note that because there is a single `nonReentrant` guard, functions marked as\n `nonReentrant` may not call one another. This can be worked around by making\n those functions `private`, and then adding `external` `nonReentrant` entry\n points to them.\n TIP: If you would like to learn more about reentrancy and alternative ways\n to protect against it, check out our blog post\n https://blog.openzeppelin.com/reentrancy-after-istanbul/[Reentrancy After Istanbul]."
        },
        "fullyImplemented": true,
        "id": 1028,
        "linearizedBaseContracts": [
          1028
        ],
        "name": "ReentrancyGuard",
        "nameLocation": "827:15:10",
        "nodeType": "ContractDefinition",
        "nodes": [
          {
            "constant": true,
            "id": 994,
            "mutability": "constant",
            "name": "_NOT_ENTERED",
            "nameLocation": "1622:12:10",
            "nodeType": "VariableDeclaration",
            "scope": 1028,
            "src": "1597:41:10",
            "stateVariable": true,
            "storageLocation": "default",
            "typeDescriptions": {
              "typeIdentifier": "t_uint256",
              "typeString": "uint256"
            },
            "typeName": {
              "id": 992,
              "name": "uint256",
              "nodeType": "ElementaryTypeName",
              "src": "1597:7:10",
              "typeDescriptions": {
                "typeIdentifier": "t_uint256",
                "typeString": "uint256"
              }
            },
            "value": {
              "hexValue": "31",
              "id": 993,
              "isConstant": false,
              "isLValue": false,
              "isPure": true,
              "kind": "number",
              "lValueRequested": false,
              "nodeType": "Literal",
              "src": "1637:1:10",
              "typeDescriptions": {
                "typeIdentifier": "t_rational_1_by_1",
                "typeString": "int_const 1"
              },
              "value": "1"
            },
            "visibility": "private"
          },
          {
            "constant": true,
            "id": 997,
            "mutability": "constant",
            "name": "_ENTERED",
            "nameLocation": "1669:8:10",
            "nodeType": "VariableDeclaration",
            "scope": 1028,
            "src": "1644:37:10",
            "stateVariable": true,
            "storageLocation": "default",
            "typeDescriptions": {
              "typeIdentifier": "t_uint256",
              "typeString": "uint256"
            },
            "typeName": {
              "id": 995,
              "name": "uint256",
              "nodeType": "ElementaryTypeName",
              "src": "1644:7:10",
              "typeDescriptions": {
                "typeIdentifier": "t_uint256",
                "typeString": "uint256"
              }
            },
            "value": {
              "hexValue": "32",
              "id": 996,
              "isConstant": false,
              "isLValue": false,
              "isPure": true,
              "kind": "number",
              "lValueRequested": false,
              "nodeType": "Literal",
              "src": "1680:1:10",
              "typeDescriptions": {
                "typeIdentifier": "t_rational_2_by_1",
                "typeString": "int_const 2"
              },
              "value": "2"
            },
            "visibility": "private"
          },
          {
            "constant": false,
            "id": 999,
            "mutability": "mutable",
            "name": "_status",
            "nameLocation": "1704:7:10",
            "nodeType": "VariableDeclaration",
            "scope": 1028,
            "src": "1688:23:10",
            "stateVariable": true,
            "storageLocation": "default",
            "typeDescriptions": {
              "typeIdentifier": "t_uint256",
              "typeString": "uint256"
            },
            "typeName": {
              "id": 998,
              "name": "uint256",
              "nodeType": "ElementaryTypeName",
              "src": "1688:7:10",
              "typeDescriptions": {
                "typeIdentifier": "t_uint256",
                "typeString": "uint256"
              }
            },
            "visibility": "private"
          },
          {
            "body": {
              "id": 1006,
              "nodeType": "Block",
              "src": "1732:39:10",
              "statements": [
                {
                  "expression": {
                    "id": 1004,
                    "isConstant": false,
                    "isLValue": false,
                    "isPure": false,
                    "lValueRequested": false,
                    "leftHandSide": {
                      "id": 1002,
                      "name": "_status",
                      "nodeType": "Identifier",
                      "overloadedDeclarations": [],
                      "referencedDeclaration": 999,
                      "src": "1742:7:10",
                      "typeDescriptions": {
                        "typeIdentifier": "t_uint256",
                        "typeString": "uint256"
                      }
                    },
                    "nodeType": "Assignment",
                    "operator": "=",
                    "rightHandSide": {
                      "id": 1003,
                      "name": "_NOT_ENTERED",
                      "nodeType": "Identifier",
                      "overloadedDeclarations": [],
                      "referencedDeclaration": 994,
                      "src": "1752:12:10",
                      "typeDescriptions": {
                        "typeIdentifier": "t_uint256",
                        "typeString": "uint256"
                      }
                    },
                    "src": "1742:22:10",
                    "typeDescriptions": {
                      "typeIdentifier": "t_uint256",
                      "typeString": "uint256"
                    }
                  },
                  "id": 1005,
                  "nodeType": "ExpressionStatement",
                  "src": "1742:22:10"
                }
              ]
            },
            "id": 1007,
            "implemented": true,
            "kind": "constructor",
            "modifiers": [],
            "name": "",
            "nameLocation": "-1:-1:-1",
            "nodeType": "FunctionDefinition",
            "parameters": {
              "id": 1000,
              "nodeType": "ParameterList",
              "parameters": [],
              "src": "1729:2:10"
            },
            "returnParameters": {
              "id": 1001,
              "nodeType": "ParameterList",
              "parameters": [],
              "src": "1732:0:10"
            },
            "scope": 1028,
            "src": "1718:53:10",
            "stateMutability": "nonpayable",
            "virtual": false,
            "visibility": "internal"
          },
          {
            "body": {
              "id": 1026,
              "nodeType": "Block",
              "src": "2170:421:10",
              "statements": [
                {
                  "expression": {
                    "arguments": [
                      {
                        "commonType": {
                          "typeIdentifier": "t_uint256",
                          "typeString": "uint256"
                        },
                        "id": 1013,
                        "isConstant": false,
                        "isLValue": false,
                        "isPure": false,
                        "lValueRequested": false,
                        "leftExpression": {
                          "id": 1011,
                          "name": "_status",
                          "nodeType": "Identifier",
                          "overloadedDeclarations": [],
                          "referencedDeclaration": 999,
                          "src": "2259:7:10",
                          "typeDescriptions": {
                            "typeIdentifier": "t_uint256",
                            "typeString": "uint256"
                          }
                        },
                        "nodeType": "BinaryOperation",
                        "operator": "!=",
                        "rightExpression": {
                          "id": 1012,
                          "name": "_ENTERED",
                          "nodeType": "Identifier",
                          "overloadedDeclarations": [],
                          "referencedDeclaration": 997,
                          "src": "2270:8:10",
                          "typeDescriptions": {
                            "typeIdentifier": "t_uint256",
                            "typeString": "uint256"
                          }
                        },
                        "src": "2259:19:10",
                        "typeDescriptions": {
                          "typeIdentifier": "t_bool",
                          "typeString": "bool"
                        }
                      },
                      {
                        "hexValue": "5265656e7472616e637947756172643a207265656e7472616e742063616c6c",
                        "id": 1014,
                        "isConstant": false,
                        "isLValue": false,
                        "isPure": true,
                        "kind": "string",
                        "lValueRequested": false,
                        "nodeType": "Literal",
                        "src": "2280:33:10",
                        "typeDescriptions": {
                          "typeIdentifier": "t_stringliteral_ebf73bba305590e4764d5cb53b69bffd6d4d092d1a67551cb346f8cfcdab8619",
                          "typeString": "literal_string \"ReentrancyGuard: reentrant call\""
                        },
                        "value": "ReentrancyGuard: reentrant call"
                      }
                    ],
                    "expression": {
                      "argumentTypes": [
                        {
                          "typeIdentifier": "t_bool",
                          "typeString": "bool"
                        },
                        {
                          "typeIdentifier": "t_stringliteral_ebf73bba305590e4764d5cb53b69bffd6d4d092d1a67551cb346f8cfcdab8619",
                          "typeString": "literal_string \"ReentrancyGuard: reentrant call\""
                        }
                      ],
                      "id": 1010,
                      "name": "require",
                      "nodeType": "Identifier",
                      "overloadedDeclarations": [
                        4294967278,
                        4294967278
                      ],
                      "referencedDeclaration": 4294967278,
                      "src": "2251:7:10",
                      "typeDescriptions": {
                        "typeIdentifier": "t_function_require_pure$_t_bool_$_t_string_memory_ptr_$returns$__$",
                        "typeString": "function (bool,string memory) pure"
                      }
                    },
                    "id": 1015,
                    "isConstant": false,
                    "isLValue": false,
                    "isPure": false,
                    "kind": "functionCall",
                    "lValueRequested": false,
                    "names": [],
                    "nodeType": "FunctionCall",
                    "src": "2251:63:10",
                    "tryCall": false,
                    "typeDescriptions": {
                      "typeIdentifier": "t_tuple$__$",
                      "typeString": "tuple()"
                    }
                  },
                  "id": 1016,
                  "nodeType": "ExpressionStatement",
                  "src": "2251:63:10"
                },
                {
                  "expression": {
                    "id": 1019,
                    "isConstant": false,
                    "isLValue": false,
                    "isPure": false,
                    "lValueRequested": false,
                    "leftHandSide": {
                      "id": 1017,
                      "name": "_status",
                      "nodeType": "Identifier",
                      "overloadedDeclarations": [],
                      "referencedDeclaration": 999,
                      "src": "2389:7:10",
                      "typeDescriptions": {
                        "typeIdentifier": "t_uint256",
                        "typeString": "uint256"
                      }
                    },
                    "nodeType": "Assignment",
                    "operator": "=",
                    "rightHandSide": {
                      "id": 1018,
                      "name": "_ENTERED",
                      "nodeType": "Identifier",
                      "overloadedDeclarations": [],
                      "referencedDeclaration": 997,
                      "src": "2399:8:10",
                      "typeDescriptions": {
                        "typeIdentifier": "t_uint256",
                        "typeString": "uint256"
                      }
                    },
                    "src": "2389:18:10",
                    "typeDescriptions": {
                      "typeIdentifier": "t_uint256",
                      "typeString": "uint256"
                    }
                  },
                  "id": 1020,
                  "nodeType": "ExpressionStatement",
                  "src": "2389:18:10"
                },
                {
                  "id": 1021,
                  "nodeType": "PlaceholderStatement",
                  "src": "2418:1:10"
                },
                {
                  "expression": {
                    "id": 1024,
                    "isConstant": false,
                    "isLValue": false,
                    "isPure": false,
                    "lValueRequested": false,
                    "leftHandSide": {
                      "id": 1022,
                      "name": "_status",
                      "nodeType": "Identifier",
                      "overloadedDeclarations": [],
                      "referencedDeclaration": 999,
                      "src": "2562:7:10",
                      "typeDescriptions": {
                        "typeIdentifier": "t_uint256",
                        "typeString": "uint256"
                      }
                    },
                    "nodeType": "Assignment",
                    "operator": "=",
                    "rightHandSide": {
                      "id": 1023,
                      "name": "_NOT_ENTERED",
                      "nodeType": "Identifier",
                      "overloadedDeclarations": [],
                      "referencedDeclaration": 994,
                      "src": "2572:12:10",
                      "typeDescriptions": {
                        "typeIdentifier": "t_uint256",
                        "typeString": "uint256"
                      }
                    },
                    "src": "2562:22:10",
                    "typeDescriptions": {
                      "typeIdentifier": "t_uint256",
                      "typeString": "uint256"
                    }
                  },
                  "id": 1025,
                  "nodeType": "ExpressionStatement",
                  "src": "2562:22:10"
                }
              ]
            },
            "documentation": {
              "id": 1008,
              "nodeType": "StructuredDocumentation",
              "src": "1777:364:10",
              "text": " @dev Prevents a contract from calling itself, directly or indirectly.\n Calling a `nonReentrant` function from another `nonReentrant`\n function is not supported. It is possible to prevent this from happening\n by making the `nonReentrant` function external, and make it call a\n `private` function that does the actual work."
            },
            "id": 1027,
            "name": "nonReentrant",
            "nameLocation": "2155:12:10",
            "nodeType": "ModifierDefinition",
            "parameters": {
              "id": 1009,
              "nodeType": "ParameterList",
              "parameters": [],
              "src": "2167:2:10"
            },
            "src": "2146:445:10",
            "virtual": false,
            "visibility": "internal"
          }
        ],
        "scope": 1029,
        "src": "809:1784:10",
        "usedErrors": []
      }
    ],
    "src": "33:2561:10"
  },
  "compiler": {
    "name": "solc",
    "version": "0.8.6+commit.11564f7e.Emscripten.clang"
  },
  "networks": {},
  "schemaVersion": "3.4.1",
  "updatedAt": "2021-07-14T13:12:15.077Z",
  "devdoc": {
    "details": "Contract module that helps prevent reentrant calls to a function. Inheriting from `ReentrancyGuard` will make the {nonReentrant} modifier available, which can be applied to functions to make sure there are no nested (reentrant) calls to them. Note that because there is a single `nonReentrant` guard, functions marked as `nonReentrant` may not call one another. This can be worked around by making those functions `private`, and then adding `external` `nonReentrant` entry points to them. TIP: If you would like to learn more about reentrancy and alternative ways to protect against it, check out our blog post https://blog.openzeppelin.com/reentrancy-after-istanbul/[Reentrancy After Istanbul].",
    "kind": "dev",
    "methods": {},
    "version": 1
  },
  "userdoc": {
    "kind": "user",
    "methods": {},
    "version": 1
  }
}